R4phd - Other data wrangling functions
…
Change all circumference columns in the soldiers dataframe and change their values from cm to inches

Code

soldiers %>% 
  mutate(across(
    .cols = contains("circumference"), 
    .fns = ~.x *0.393701))

# A tibble: 6,208 × 24
   subjectid fake_cpr    sex      age Ethnicity        DODRace WritingPreference
       <dbl> <chr>       <chr>  <dbl> <chr>              <dbl> <chr>            
 1      1017 151168-2263 Male      41 <NA>                   1 Right hand       
 2      4775 210475-1945 Man       35 <NA>                   1 Left hand        
 3      2177 290568-1069 Male      42 <NA>                   2 Left hand        
 4      5026 121283-0610 Female    26 <NA>                   2 Right hand       
 5      1533 090189-0422 Woman     21 Mexican                3 Right hand       
 6      4567 020487-3860 Female    23 <NA>                   1 Right hand       
 7      2347 041287-8106 Female    22 Caribbean Islan…       2 Right hand       
 8       270 130765-7114 Woman     45 <NA>                   1 Right hand       
 9      4050 020166-4680 Female    44 <NA>                   2 Left hand        
10      5307 101188-3148 Female    21 <NA>                   1 Right hand       
# ℹ 6,198 more rows
# ℹ 17 more variables: Installation <chr>, Component <chr>, Branch <chr>,
#   Heightin <dbl>, weightkg <dbl>, earlength <dbl>, footlength <dbl>,
#   handlength <dbl>, handbreadth <dbl>, hipbreadth <dbl>, chestbreadth <dbl>,
#   thighcircumference <dbl>, waistcircumference <dbl>,
#   anklecircumference <dbl>, bicepscircumference <dbl>,
#   calfcircumference <dbl>, span <dbl>
…
Target all numeric columns in the soldiers dataframe and add 1.5

Code

soldiers %>% 
  mutate(
    across(
      .cols = where(is.numeric),
      .fns = ~.x+1.5
    )
  )

# A tibble: 6,208 × 24
   subjectid fake_cpr    sex      age Ethnicity        DODRace WritingPreference
       <dbl> <chr>       <chr>  <dbl> <chr>              <dbl> <chr>            
 1     1018. 151168-2263 Male    42.5 <NA>                 2.5 Right hand       
 2     4776. 210475-1945 Man     36.5 <NA>                 2.5 Left hand        
 3     2178. 290568-1069 Male    43.5 <NA>                 3.5 Left hand        
 4     5028. 121283-0610 Female  27.5 <NA>                 3.5 Right hand       
 5     1534. 090189-0422 Woman   22.5 Mexican              4.5 Right hand       
 6     4568. 020487-3860 Female  24.5 <NA>                 2.5 Right hand       
 7     2348. 041287-8106 Female  23.5 Caribbean Islan…     3.5 Right hand       
 8      272. 130765-7114 Woman   46.5 <NA>                 2.5 Right hand       
 9     4052. 020166-4680 Female  45.5 <NA>                 3.5 Left hand        
10     5308. 101188-3148 Female  22.5 <NA>                 2.5 Right hand       
# ℹ 6,198 more rows
# ℹ 17 more variables: Installation <chr>, Component <chr>, Branch <chr>,
#   Heightin <dbl>, weightkg <dbl>, earlength <dbl>, footlength <dbl>,
#   handlength <dbl>, handbreadth <dbl>, hipbreadth <dbl>, chestbreadth <dbl>,
#   thighcircumference <dbl>, waistcircumference <dbl>,
#   anklecircumference <dbl>, bicepscircumference <dbl>,
#   calfcircumference <dbl>, span <dbl>
…
