R4phd - tidy data
…
  # Create ga_cat on the basis of ga_week
  # ga_cat is a categorical variable
  mutate(
    ga_cat = case_when(
      ga_week < 22 ~ "14-21",
      ga_week < 37 ~ "22-36",
      ga_week < 42 ~ "37-42",
      ga_week >= 42 ~ "43+"
    ) %>%  factor(ordered = TRUE)
  )

0.2 Print

# A tibble: 100 × 7
      ID ga_week gender t1_pg13_sum t2_pg13_sum t3_pg13_sum ga_cat
   <int>   <int> <chr>        <dbl>       <dbl>       <dbl> <ord> 
 1     1      37 Female        40.7        31.3       30.7  37-42 
 2     2      16 Female        31.8        33.2       30.2  14-21 
 3     3      19 Male          30.0        27.9       28.8  14-21 
 4     4      13 Male          15.2        14.1        8.27 14-21 
 5     5      14 Female        42.8        45.6       36.8  14-21 
 6     6      41 Female        37.7        30.9       24.7  37-42 
 7     7      35 Female        63.8        62.8       58.1  22-36 
 8     8      23 Male          26.5        21.2       15.5  22-36 
 9     9      26 Female        59.8        52.3       46.0  22-36 
10    10      30 Male          30.9        30.5       20.8  22-36 
# ℹ 90 more rows
…
2 Solution! Make the data longer (tidy) with pivot_longer()

2.1 pivot_longer()

Sorg_long <- Sorg %>% 
  pivot_longer(cols = ends_with("_sum"),
               names_to = "Tid",
               values_to = "Grief")

# A tibble: 300 × 6
      ID ga_week gender ga_cat Tid         Grief
   <int>   <int> <chr>  <ord>  <chr>       <dbl>
 1     1      37 Female 37-42  t1_pg13_sum  40.7
 2     1      37 Female 37-42  t2_pg13_sum  31.3
 3     1      37 Female 37-42  t3_pg13_sum  30.7
 4     2      16 Female 14-21  t1_pg13_sum  31.8
 5     2      16 Female 14-21  t2_pg13_sum  33.2
 6     2      16 Female 14-21  t3_pg13_sum  30.2
 7     3      19 Male   14-21  t1_pg13_sum  30.0
 8     3      19 Male   14-21  t2_pg13_sum  27.9
 9     3      19 Male   14-21  t3_pg13_sum  28.8
10     4      13 Male   14-21  t1_pg13_sum  15.2
# ℹ 290 more rows
…
